{
  "type": "postgres",
  "host": "localhost",
  "port": "5432",
  "username": "postgres",
  "password": "postgres",
  "database": "ideas",
  "synchronize": true,
  "logging": true,
  "entities": ["./dist/**/*.entity.js"]
}
